<?xml version="1.0" encoding="UTF-8" standalone="no"?>
<!-- Generator: Adobe Illustrator 22.0.0, SVG Export Plug-In . SVG Version: 6.00 Build 0)  -->

<svg
   version="1.1"
   id="Calque_1"
   x="0px"
   y="0px"
   viewBox="0 0 635.7 627"
   style="enable-background:new 0 0 635.7 627;"
   xml:space="preserve"
   sodipodi:docname="intim-idees-vertical-fond-rouge.svg"
   inkscape:version="1.1.1 (26b7af14f2, 2022-01-19)"
   xmlns:inkscape="http://www.inkscape.org/namespaces/inkscape"
   xmlns:sodipodi="http://sodipodi.sourceforge.net/DTD/sodipodi-0.dtd"
   xmlns="http://www.w3.org/2000/svg"
   xmlns:svg="http://www.w3.org/2000/svg"><defs
   id="defs93" /><sodipodi:namedview
   id="namedview91"
   pagecolor="#ad0042"
   bordercolor="#666666"
   borderopacity="1.0"
   inkscape:pageshadow="2"
   inkscape:pageopacity="0"
   inkscape:pagecheckerboard="0"
   showgrid="false"
   inkscape:zoom="1.3141946"
   inkscape:cx="317.68507"
   inkscape:cy="313.5"
   inkscape:window-width="1920"
   inkscape:window-height="1018"
   inkscape:window-x="218"
   inkscape:window-y="1440"
   inkscape:window-maximized="1"
   inkscape:current-layer="Calque_1" />
<style
   type="text/css"
   id="style2">
	.st0{fill:#20336B;}
	.st1{fill:#AD0042;}
	.st2{fill:#FCB315;}
	.st3{fill:none;}
	.st4{fill:#919191;}
	.st5{fill:#FFFFFF;}
	.st6{fill:#FCB315;stroke:#FCB315;stroke-width:5;stroke-linecap:round;stroke-miterlimit:10;}
</style>
<g
   id="g88">
	<g
   id="g44">
		<rect
   x="152.7"
   y="519.8"
   class="st3"
   width="331.3"
   height="34"
   id="rect4" />
		<path
   class="st4"
   d="M154.2,548.2c0-0.3,0.1-0.7,0.4-1.1c0.3-0.4,0.6-0.5,0.9-0.5c0.2,0,0.5,0.2,0.9,0.6l1.2,1.2    c0.4,0.5,1.1,0.9,2,1.2c0.9,0.4,2,0.5,3.2,0.5c2,0,3.6-0.5,4.7-1.5c1.1-1,1.7-2.5,1.7-4.4c0-1.3-0.3-2.4-0.8-3.3    c-0.5-0.9-1.2-1.6-2-2.1c-0.8-0.5-1.7-1-2.8-1.4l-3.1-1.2c-1-0.4-2-0.9-2.8-1.4c-0.8-0.6-1.5-1.3-2-2.4c-0.5-1-0.8-2.2-0.8-3.6    c0-1.5,0.3-2.8,0.8-3.9s1.3-1.9,2.3-2.4c0.9-0.5,1.9-0.9,2.9-1.2c1-0.2,2-0.4,3.1-0.4c1.7,0,3.4,0.3,4.9,0.8    c1.5,0.5,2.3,1.1,2.3,1.9c0,0.3-0.1,0.7-0.4,1.1c-0.2,0.4-0.5,0.5-0.9,0.5c-0.2,0-0.5-0.1-1-0.4c-0.5-0.3-1.2-0.5-2-0.8    s-1.9-0.4-3-0.4c-1.8,0-3.3,0.4-4.5,1.2c-1.2,0.8-1.8,2-1.8,3.8c0,1.2,0.4,2.3,1.1,3.1c0.7,0.8,1.6,1.4,2.6,1.8    c1.1,0.4,2.2,0.8,3.4,1.3c1.2,0.5,2.4,1.1,3.4,1.7c1.1,0.6,1.9,1.5,2.6,2.8c0.7,1.3,1.1,2.8,1.1,4.7c0,2.9-0.8,5.1-2.5,6.6    c-1.6,1.5-3.8,2.2-6.6,2.2c-2.5,0-4.6-0.5-6.3-1.6C155.1,550.2,154.2,549.2,154.2,548.2z"
   id="path6" />
		<path
   class="st4"
   d="M175.4,522.6c0-0.5,0.2-1,0.6-1.4c0.4-0.4,0.8-0.6,1.3-0.6c0.5,0,1,0.2,1.3,0.6c0.4,0.4,0.6,0.9,0.6,1.4    c0,0.6-0.5,2.3-1.6,4.9c-0.2,0.3-0.4,0.5-0.7,0.5c-0.3,0-0.5-0.1-0.7-0.3s-0.3-0.4-0.3-0.6c0-0.2,0-0.3,0.1-0.4l0.8-2.2    c-0.4-0.1-0.7-0.4-0.9-0.7C175.6,523.4,175.4,523,175.4,522.6z"
   id="path8" />
		<path
   class="st4"
   d="M181.9,544.6v-4.8c0-2.1,0.8-4,2.4-5.6c1.6-1.6,3.5-2.3,5.8-2.3c2.2,0,4.1,0.7,5.7,2.2    c1.6,1.5,2.4,3.4,2.4,5.6c0,0.8-0.1,1.4-0.3,1.9c-0.2,0.5-0.5,0.8-0.9,1s-0.8,0.3-1.1,0.4c-0.3,0.1-0.8,0.1-1.4,0.1h-9.7v1.6    c0,1.7,0.6,3,1.8,4.1c1.2,1,2.8,1.5,4.7,1.5c1,0,1.8-0.1,2.6-0.4c0.7-0.3,1.3-0.6,1.7-0.9c0.4-0.3,0.7-0.4,0.9-0.4    c0.3,0,0.6,0.2,0.8,0.5c0.2,0.3,0.4,0.6,0.4,0.9c0,0.6-0.6,1.2-1.8,1.9c-1.2,0.6-2.8,1-4.6,1c-2.7,0-4.9-0.8-6.7-2.3    C182.7,549.1,181.9,547.1,181.9,544.6z M184.6,541.1h8.6c0.9,0,1.4-0.1,1.7-0.3s0.4-0.6,0.4-1.2c0-1.4-0.5-2.7-1.5-3.8    c-1-1.1-2.3-1.6-3.8-1.6c-1.5,0-2.8,0.5-3.8,1.5s-1.6,2.3-1.6,3.7V541.1z"
   id="path10" />
		<path
   class="st4"
   d="M202.3,551.4v-18.2c0-0.3,0.1-0.6,0.4-0.8c0.3-0.2,0.6-0.3,1-0.3c0.3,0,0.6,0.1,0.9,0.3    c0.3,0.2,0.4,0.5,0.4,0.7v2c0.5-0.9,1.2-1.7,2.2-2.4s2.2-1,3.5-1c2.1,0,3.9,0.8,5.4,2.4c1.5,1.6,2.3,3.5,2.3,5.7v11.4    c0,0.3-0.1,0.6-0.4,0.8c-0.3,0.2-0.6,0.3-1,0.3c-0.3,0-0.7-0.1-0.9-0.3c-0.3-0.2-0.4-0.5-0.4-0.8V540c0-1.4-0.5-2.7-1.6-3.8    s-2.3-1.7-3.8-1.7c-1.3,0-2.5,0.5-3.6,1.5c-1,1-1.5,2.3-1.5,3.9v11.4c0,0.3-0.1,0.5-0.4,0.8c-0.3,0.2-0.6,0.3-1,0.3    c-0.4,0-0.7-0.1-1-0.3C202.5,551.9,202.3,551.7,202.3,551.4z"
   id="path12" />
		<path
   class="st4"
   d="M223.6,546.2v-22.6c0-0.3,0.1-0.5,0.4-0.7c0.3-0.2,0.6-0.3,0.9-0.3c0.4,0,0.7,0.1,1,0.3    c0.3,0.2,0.4,0.4,0.4,0.7v8.6h5.5c0.3,0,0.5,0.1,0.7,0.4s0.3,0.5,0.3,0.8c0,0.3-0.1,0.6-0.3,0.8c-0.2,0.2-0.4,0.3-0.7,0.3h-5.5    v11.6c0,1.4,0.3,2.4,0.9,2.9c0.6,0.6,1.6,0.8,3.1,0.8h1.2c0.4,0,0.7,0.1,0.9,0.4c0.2,0.3,0.4,0.6,0.4,0.9c0,0.4-0.1,0.7-0.4,0.9    c-0.2,0.3-0.6,0.4-0.9,0.4h-1.2C225.8,552.5,223.6,550.4,223.6,546.2z"
   id="path14" />
		<path
   class="st4"
   d="M236.4,551.4v-18.2c0-0.3,0.1-0.5,0.4-0.7c0.3-0.2,0.6-0.3,1-0.3c0.4,0,0.7,0.1,0.9,0.3    c0.3,0.2,0.4,0.5,0.4,0.7v2.1c0.5-1,1.3-1.8,2.3-2.4s2.2-1,3.5-1h1.5c0.3,0,0.5,0.1,0.8,0.4c0.2,0.3,0.3,0.6,0.3,0.9    s-0.1,0.7-0.3,0.9c-0.2,0.3-0.5,0.4-0.8,0.4h-1.5c-1.5,0-2.8,0.6-4,1.7c-1.1,1.2-1.7,2.7-1.7,4.5v10.6c0,0.3-0.1,0.5-0.4,0.8    c-0.3,0.2-0.6,0.3-1,0.3c-0.4,0-0.7-0.1-1-0.3C236.6,551.9,236.4,551.7,236.4,551.4z"
   id="path16" />
		<path
   class="st4"
   d="M249.2,547.1c0-2.3,0.9-3.8,2.6-4.7c1.7-0.9,4.2-1.3,7.5-1.3h2.2v-1c0-1.5-0.4-2.9-1.2-4    c-0.8-1.1-2.1-1.7-3.8-1.7c-1.1,0-2.2,0.2-3.1,0.6c-0.9,0.4-1.4,0.6-1.5,0.6c-0.3,0-0.6-0.2-0.8-0.5s-0.3-0.6-0.3-1    c0-0.5,0.6-1,1.8-1.5c1.2-0.5,2.6-0.7,4-0.7c2.7,0,4.7,0.8,5.9,2.3c1.2,1.6,1.9,3.5,1.9,6v11.2c0,0.3-0.1,0.6-0.4,0.8    c-0.3,0.2-0.6,0.3-1,0.3c-0.4,0-0.7-0.1-0.9-0.3c-0.2-0.2-0.4-0.5-0.4-0.8v-1.9c-1.9,2.2-4.1,3.3-6.5,3.3c-1.7,0-3.1-0.5-4.2-1.4    C249.8,550.4,249.2,549,249.2,547.1z M252,546.9c0,1.2,0.3,2.1,1,2.7s1.6,0.9,2.7,0.9c1.3,0,2.6-0.5,3.8-1.5c1.2-1,1.8-2,1.8-3    v-2.8h-1.8c-1.1,0-2.1,0-2.9,0.1c-0.8,0.1-1.6,0.2-2.3,0.5c-0.8,0.2-1.4,0.6-1.8,1.1C252.2,545.4,252,546.1,252,546.9z"
   id="path18" />
		<path
   class="st4"
   d="M269.5,525.6c-0.4-0.4-0.6-0.8-0.6-1.3s0.2-0.9,0.6-1.2c0.4-0.3,0.8-0.5,1.4-0.5c0.5,0,1,0.2,1.3,0.5    c0.4,0.3,0.5,0.8,0.5,1.2s-0.2,0.9-0.5,1.3c-0.4,0.4-0.8,0.5-1.3,0.5C270.3,526.2,269.9,526,269.5,525.6z M269.5,551.4v-18.2    c0-0.3,0.1-0.5,0.4-0.7c0.3-0.2,0.6-0.3,1-0.3c0.4,0,0.7,0.1,1,0.3c0.3,0.2,0.4,0.4,0.4,0.7v18.2c0,0.3-0.1,0.5-0.4,0.8    c-0.3,0.2-0.6,0.3-1,0.3c-0.4,0-0.7-0.1-1-0.3C269.6,551.9,269.5,551.7,269.5,551.4z"
   id="path20" />
		<path
   class="st4"
   d="M276.9,544.6V540c0-2.2,0.8-4.1,2.3-5.7c1.5-1.6,3.3-2.4,5.4-2.4c1.3,0,2.5,0.3,3.5,1c1,0.6,1.7,1.4,2.2,2.3    v-14.4c0-0.3,0.1-0.5,0.4-0.7c0.3-0.2,0.6-0.3,1-0.3c0.4,0,0.7,0.1,1,0.3s0.4,0.4,0.4,0.7v30.6c0,0.3-0.1,0.5-0.4,0.8    c-0.3,0.2-0.6,0.3-0.9,0.3c-0.3,0-0.7-0.1-0.9-0.3c-0.3-0.2-0.4-0.5-0.4-0.8v-1.9c-0.5,0.9-1.3,1.7-2.3,2.4c-1.1,0.7-2.3,1-3.5,1    c-2,0-3.8-0.8-5.3-2.5C277.7,548.7,276.9,546.8,276.9,544.6z M279.7,544.6c0,1.4,0.5,2.7,1.6,3.8c1.1,1.1,2.3,1.7,3.7,1.7    c1.4,0,2.6-0.5,3.7-1.5c1.1-1,1.6-1.9,1.6-2.7v-6c0-1.6-0.5-2.9-1.6-3.9s-2.3-1.5-3.6-1.5c-1.5,0-2.7,0.6-3.8,1.7    s-1.6,2.4-1.6,3.8V544.6z"
   id="path22" />
		<path
   class="st4"
   d="M297.7,544.6v-4.8c0-2.1,0.8-4,2.4-5.6c1.6-1.6,3.5-2.3,5.8-2.3c2.2,0,4.1,0.7,5.7,2.2    c1.6,1.5,2.4,3.4,2.4,5.6c0,0.8-0.1,1.4-0.3,1.9c-0.2,0.5-0.5,0.8-0.9,1c-0.4,0.2-0.8,0.3-1.1,0.4c-0.3,0.1-0.8,0.1-1.4,0.1h-9.7    v1.6c0,1.7,0.6,3,1.8,4.1c1.2,1,2.8,1.5,4.7,1.5c1,0,1.8-0.1,2.6-0.4c0.7-0.3,1.3-0.6,1.7-0.9c0.4-0.3,0.7-0.4,0.9-0.4    c0.3,0,0.6,0.2,0.8,0.5c0.2,0.3,0.4,0.6,0.4,0.9c0,0.6-0.6,1.2-1.8,1.9c-1.2,0.6-2.8,1-4.6,1c-2.7,0-4.9-0.8-6.7-2.3    C298.6,549.1,297.7,547.1,297.7,544.6z M300.5,541.1h8.6c0.9,0,1.4-0.1,1.7-0.3c0.3-0.2,0.4-0.6,0.4-1.2c0-1.4-0.5-2.7-1.5-3.8    c-1-1.1-2.3-1.6-3.8-1.6c-1.5,0-2.8,0.5-3.8,1.5s-1.6,2.3-1.6,3.7V541.1z"
   id="path24" />
		<path
   class="st4"
   d="M318.2,551.4v-18.2c0-0.3,0.1-0.5,0.4-0.7c0.3-0.2,0.6-0.3,1-0.3c0.4,0,0.7,0.1,0.9,0.3    c0.3,0.2,0.4,0.5,0.4,0.7v2.1c0.5-1,1.3-1.8,2.3-2.4c1-0.7,2.2-1,3.5-1h1.5c0.3,0,0.5,0.1,0.8,0.4s0.3,0.6,0.3,0.9    s-0.1,0.7-0.3,0.9s-0.5,0.4-0.8,0.4h-1.5c-1.5,0-2.8,0.6-4,1.7s-1.7,2.7-1.7,4.5v10.6c0,0.3-0.1,0.5-0.4,0.8    c-0.3,0.2-0.6,0.3-1,0.3c-0.4,0-0.7-0.1-1-0.3S318.2,551.7,318.2,551.4z"
   id="path26" />
		<path
   class="st4"
   d="M339.6,547.1c0-2.3,0.9-3.8,2.6-4.7c1.7-0.9,4.2-1.3,7.5-1.3h2.2v-1c0-1.5-0.4-2.9-1.2-4    c-0.8-1.1-2.1-1.7-3.8-1.7c-1.1,0-2.2,0.2-3.1,0.6c-0.9,0.4-1.4,0.6-1.5,0.6c-0.3,0-0.6-0.2-0.8-0.5c-0.2-0.3-0.3-0.7-0.3-1    c0-0.5,0.6-1,1.8-1.5s2.6-0.7,4-0.7c2.7,0,4.7,0.8,5.9,2.3c1.2,1.6,1.9,3.5,1.9,6v11.2c0,0.3-0.1,0.6-0.4,0.8s-0.6,0.3-1,0.3    c-0.4,0-0.7-0.1-0.9-0.3s-0.4-0.5-0.4-0.8v-1.9c-1.9,2.2-4.1,3.3-6.5,3.3c-1.7,0-3.1-0.5-4.2-1.4    C340.2,550.4,339.6,549,339.6,547.1z M342.4,546.9c0,1.2,0.3,2.1,1,2.7c0.7,0.6,1.6,0.9,2.7,0.9c1.3,0,2.6-0.5,3.8-1.5    c1.2-1,1.8-2,1.8-3v-2.8H350c-1.1,0-2.1,0-2.9,0.1c-0.8,0.1-1.6,0.2-2.3,0.5c-0.8,0.2-1.4,0.6-1.8,1.1S342.4,546.1,342.4,546.9z     M343.8,523.6c0-0.3,0.1-0.6,0.3-0.8s0.4-0.4,0.7-0.4c0.1,0,0.2,0,0.4,0.1l4.8,2.6c0.3,0.1,0.5,0.4,0.5,0.8c0,0.3-0.1,0.6-0.3,0.8    c-0.2,0.2-0.5,0.4-0.8,0.4c-0.1,0-0.3,0-0.4-0.1l-4.6-2.5C344,524.4,343.8,524,343.8,523.6z"
   id="path28" />
		<path
   class="st4"
   d="M367.2,549.7c0-0.3,0.1-0.6,0.3-0.9c0.2-0.3,0.4-0.4,0.7-0.4c0.2,0,0.5,0.2,0.9,0.5c0.4,0.3,1,0.7,1.8,1    c0.8,0.3,1.8,0.5,2.9,0.5c1.5,0,2.6-0.3,3.4-0.9c0.7-0.6,1.1-1.3,1.1-2.2c0-1-0.4-1.9-1.1-2.5c-0.7-0.6-1.6-1.1-2.6-1.4    s-2.1-0.6-3.1-0.9c-1-0.3-1.9-0.9-2.7-1.7c-0.7-0.8-1.1-1.8-1.1-3.2c0-1.6,0.6-2.9,1.7-4.1c1.1-1.2,2.8-1.7,5.1-1.7    c1.4,0,2.7,0.2,3.9,0.7s1.8,0.9,1.8,1.4c0,0.3-0.1,0.6-0.3,0.9c-0.2,0.3-0.5,0.5-0.8,0.5c-0.1,0-0.6-0.2-1.6-0.6    c-1-0.4-2-0.6-3-0.6c-1.4,0-2.5,0.3-3.2,1s-1.1,1.4-1.1,2.3c0,0.9,0.4,1.6,1.1,2.1s1.6,0.9,2.7,1.2c1,0.3,2.1,0.6,3.1,0.9    s2,0.9,2.7,1.9c0.7,0.9,1.1,2.1,1.1,3.6c0,1.7-0.6,3.1-1.8,4.1c-1.2,1-2.9,1.5-5.1,1.5c-1.9,0-3.5-0.3-4.8-1    C367.8,551.1,367.2,550.4,367.2,549.7z"
   id="path30" />
		<path
   class="st4"
   d="M383.3,522.6c0-0.5,0.2-1,0.6-1.4c0.4-0.4,0.8-0.6,1.3-0.6c0.5,0,1,0.2,1.3,0.6c0.4,0.4,0.6,0.9,0.6,1.4    c0,0.6-0.5,2.3-1.6,4.9c-0.2,0.3-0.4,0.5-0.7,0.5c-0.3,0-0.5-0.1-0.7-0.3c-0.2-0.2-0.3-0.4-0.3-0.6c0-0.2,0-0.3,0.1-0.4l0.8-2.2    c-0.4-0.1-0.7-0.4-0.9-0.7C383.5,523.4,383.3,523,383.3,522.6z"
   id="path32" />
		<path
   class="st4"
   d="M389.2,547.1c0-2.3,0.9-3.8,2.6-4.7c1.7-0.9,4.2-1.3,7.5-1.3h2.2v-1c0-1.5-0.4-2.9-1.2-4    c-0.8-1.1-2.1-1.7-3.8-1.7c-1.1,0-2.2,0.2-3.1,0.6c-0.9,0.4-1.4,0.6-1.5,0.6c-0.3,0-0.6-0.2-0.8-0.5s-0.3-0.6-0.3-1    c0-0.5,0.6-1,1.8-1.5c1.2-0.5,2.6-0.7,4-0.7c2.7,0,4.7,0.8,5.9,2.3c1.2,1.6,1.9,3.5,1.9,6v11.2c0,0.3-0.1,0.6-0.4,0.8    s-0.6,0.3-1,0.3c-0.4,0-0.7-0.1-0.9-0.3s-0.4-0.5-0.4-0.8v-1.9c-1.9,2.2-4.1,3.3-6.5,3.3c-1.7,0-3.1-0.5-4.2-1.4    C389.8,550.4,389.2,549,389.2,547.1z M392,546.9c0,1.2,0.3,2.1,1,2.7c0.7,0.6,1.6,0.9,2.7,0.9c1.3,0,2.6-0.5,3.8-1.5    c1.2-1,1.8-2,1.8-3v-2.8h-1.8c-1.1,0-2.1,0-2.9,0.1c-0.8,0.1-1.6,0.2-2.3,0.5c-0.8,0.2-1.4,0.6-1.8,1.1S392,546.1,392,546.9z"
   id="path34" />
		<path
   class="st4"
   d="M409.5,525.6c-0.4-0.4-0.6-0.8-0.6-1.3s0.2-0.9,0.6-1.2c0.4-0.3,0.8-0.5,1.4-0.5c0.5,0,1,0.2,1.3,0.5    s0.5,0.8,0.5,1.2s-0.2,0.9-0.5,1.3c-0.4,0.4-0.8,0.5-1.3,0.5C410.3,526.2,409.9,526,409.5,525.6z M409.5,551.4v-18.2    c0-0.3,0.1-0.5,0.4-0.7c0.3-0.2,0.6-0.3,1-0.3s0.7,0.1,1,0.3c0.3,0.2,0.4,0.4,0.4,0.7v18.2c0,0.3-0.1,0.5-0.4,0.8    c-0.3,0.2-0.6,0.3-1,0.3c-0.4,0-0.7-0.1-1-0.3S409.5,551.7,409.5,551.4z"
   id="path36" />
		<path
   class="st4"
   d="M417.7,551.4v-18.2c0-0.3,0.1-0.5,0.4-0.7c0.3-0.2,0.6-0.3,1-0.3c0.4,0,0.7,0.1,0.9,0.3    c0.3,0.2,0.4,0.5,0.4,0.7v2c0.5-1,1.3-1.7,2.3-2.4c1-0.6,2.1-0.9,3.5-0.9c1.4,0,2.6,0.4,3.7,1.2c1.1,0.8,1.9,1.8,2.4,3.1    c0.7-1.4,1.7-2.5,2.8-3.2c1.2-0.7,2.4-1.1,3.7-1.1c1.9,0,3.6,0.7,5.1,2.2c1.4,1.5,2.2,3.4,2.2,5.8v11.4c0,0.3-0.1,0.5-0.4,0.8    c-0.3,0.2-0.6,0.3-1,0.3c-0.4,0-0.7-0.1-1-0.3c-0.3-0.2-0.4-0.5-0.4-0.8V540c0-1.7-0.5-3-1.5-4s-2.1-1.5-3.4-1.5    c-1.3,0-2.5,0.5-3.5,1.5c-1,1-1.5,2.3-1.5,3.8v11.6c0,0.7-0.5,1.1-1.4,1.1c-0.9,0-1.4-0.4-1.4-1.1v-11.6c0-1.5-0.5-2.8-1.4-3.8    c-1-1-2.1-1.5-3.5-1.5c-1.3,0-2.5,0.5-3.5,1.5s-1.5,2.3-1.5,4v11.4c0,0.3-0.1,0.5-0.4,0.8c-0.3,0.2-0.6,0.3-1,0.3    c-0.4,0-0.7-0.1-1-0.3S417.7,551.7,417.7,551.4z"
   id="path38" />
		<path
   class="st4"
   d="M450.5,544.6v-4.8c0-2.1,0.8-4,2.4-5.6c1.6-1.6,3.5-2.3,5.8-2.3c2.2,0,4.1,0.7,5.7,2.2s2.4,3.4,2.4,5.6    c0,0.8-0.1,1.4-0.3,1.9s-0.5,0.8-0.9,1c-0.4,0.2-0.8,0.3-1.1,0.4c-0.3,0.1-0.8,0.1-1.4,0.1h-9.7v1.6c0,1.7,0.6,3,1.8,4.1    c1.2,1,2.8,1.5,4.7,1.5c1,0,1.8-0.1,2.6-0.4c0.7-0.3,1.3-0.6,1.7-0.9c0.4-0.3,0.7-0.4,0.9-0.4c0.3,0,0.6,0.2,0.8,0.5    c0.2,0.3,0.4,0.6,0.4,0.9c0,0.6-0.6,1.2-1.8,1.9c-1.2,0.6-2.8,1-4.6,1c-2.7,0-4.9-0.8-6.7-2.3    C451.3,549.1,450.5,547.1,450.5,544.6z M453.3,541.1h8.6c0.9,0,1.4-0.1,1.7-0.3c0.3-0.2,0.4-0.6,0.4-1.2c0-1.4-0.5-2.7-1.5-3.8    c-1-1.1-2.3-1.6-3.8-1.6c-1.5,0-2.8,0.5-3.8,1.5c-1,1-1.6,2.3-1.6,3.7V541.1z"
   id="path40" />
		<path
   class="st4"
   d="M470.9,551.4v-18.2c0-0.3,0.1-0.5,0.4-0.7c0.3-0.2,0.6-0.3,1-0.3c0.4,0,0.7,0.1,0.9,0.3    c0.3,0.2,0.4,0.5,0.4,0.7v2.1c0.5-1,1.3-1.8,2.3-2.4c1-0.7,2.2-1,3.5-1h1.5c0.3,0,0.5,0.1,0.8,0.4s0.3,0.6,0.3,0.9    s-0.1,0.7-0.3,0.9s-0.5,0.4-0.8,0.4h-1.5c-1.5,0-2.8,0.6-4,1.7s-1.7,2.7-1.7,4.5v10.6c0,0.3-0.1,0.5-0.4,0.8    c-0.3,0.2-0.6,0.3-1,0.3c-0.4,0-0.7-0.1-1-0.3S470.9,551.7,470.9,551.4z"
   id="path42" />
	</g>
	<g
   id="g70">
		<rect
   x="79.8"
   y="432.5"
   class="st3"
   width="477"
   height="93"
   id="rect46" />
		<path
   class="st5"
   d="M84.4,444.6c0-1.7,0.8-3.1,2.3-4.3c1.5-1.2,3.4-1.8,5.6-1.8c2,0,3.7,0.6,5.1,1.8s2.1,2.6,2.1,4.3    c0,1.6-0.7,3-2.1,4.3c-1.4,1.2-3.1,1.8-5.1,1.8c-2.2,0-4.1-0.6-5.6-1.8C85.2,447.6,84.4,446.2,84.4,444.6z M85.7,508.4v-42.2    c0-1.3,0.6-2.3,1.9-3.1c1.2-0.8,2.8-1.2,4.7-1.2s3.5,0.4,4.8,1.2c1.3,0.8,1.9,1.8,1.9,3.1v42.2c0,1.1-0.7,2.1-2,3    c-1.3,0.9-2.9,1.4-4.7,1.4c-1.9,0-3.4-0.4-4.7-1.3C86.3,510.6,85.7,509.6,85.7,508.4z"
   id="path48" />
		<path
   class="st5"
   d="M109.7,508.4v-42.2c0-1.3,0.6-2.3,1.9-3.1c1.2-0.8,2.9-1.2,5-1.2c1.7,0,3.2,0.4,4.3,1.2    c1.2,0.8,1.8,1.8,1.8,3.1v3.2c1.1-2.3,3-4.2,5.5-5.8c2.5-1.6,5.5-2.4,8.8-2.4c4.9,0,9.2,2.1,12.9,6.4c3.7,4.3,5.5,9.4,5.5,15.3    v25.4c0,1.4-0.7,2.4-2.1,3.2c-1.4,0.8-3,1.2-4.9,1.2c-1.8,0-3.4-0.4-4.8-1.2c-1.4-0.8-2.1-1.8-2.1-3.2v-25.3    c0-2.5-0.9-4.7-2.8-6.7c-1.9-2-4-2.9-6.5-2.9c-2.4,0-4.4,0.9-6.2,2.7c-1.7,1.8-2.6,4.1-2.6,6.9v25.3c0,1.1-0.7,2.1-2.1,3    c-1.4,0.9-3,1.4-4.9,1.4c-1.9,0-3.5-0.4-4.9-1.3C110.3,510.6,109.7,509.6,109.7,508.4z"
   id="path50" />
		<path
   class="st5"
   d="M165.5,495.7v-51.3c0-1.2,0.7-2.2,2.1-3c1.4-0.8,3-1.2,4.7-1.2c1.9,0,3.5,0.4,4.9,1.2s2.1,1.8,2.1,2.9V462    h12.6c1.1,0,1.9,0.5,2.6,1.6c0.6,1.1,1,2.4,1,3.8c0,1.5-0.3,2.7-1,3.8c-0.6,1.1-1.5,1.6-2.6,1.6h-12.6v22.3c0,2,0.4,3.4,1.3,4.2    c0.9,0.8,2.4,1.2,4.7,1.2h4.2c1.9,0,3.3,0.6,4.3,1.8c1,1.2,1.6,2.6,1.6,4.3c0,1.7-0.5,3.2-1.6,4.4c-1,1.2-2.5,1.8-4.3,1.8h-4.2    C172.1,512.8,165.5,507.1,165.5,495.7z"
   id="path52" />
		<path
   class="st5"
   d="M202,444.6c0-1.7,0.8-3.1,2.3-4.3c1.5-1.2,3.4-1.8,5.6-1.8c2,0,3.7,0.6,5.1,1.8c1.4,1.2,2.1,2.6,2.1,4.3    c0,1.6-0.7,3-2.1,4.3c-1.4,1.2-3.1,1.8-5.1,1.8c-2.2,0-4.1-0.6-5.6-1.8C202.8,447.6,202,446.2,202,444.6z M203.3,508.4v-42.2    c0-1.3,0.6-2.3,1.9-3.1c1.2-0.8,2.8-1.2,4.7-1.2c1.9,0,3.5,0.4,4.8,1.2c1.3,0.8,1.9,1.8,1.9,3.1v42.2c0,1.1-0.7,2.1-2,3    c-1.3,0.9-2.9,1.4-4.7,1.4c-1.9,0-3.4-0.4-4.7-1.3C203.9,510.6,203.3,509.6,203.3,508.4z"
   id="path54" />
		<path
   class="st5"
   d="M227.3,508.4v-42.2c0-1.3,0.6-2.3,1.9-3.1c1.2-0.8,2.9-1.2,5-1.2c1.7,0,3.2,0.4,4.3,1.2    c1.2,0.8,1.8,1.8,1.8,3.1v3.2c3.1-5.5,7.8-8.2,14.1-8.2c3,0,5.7,1,8.1,3c2.4,2,4.2,4.6,5.3,7.8c1.8-3.5,4.1-6.2,7-8    c2.9-1.8,5.9-2.8,9.1-2.8c5.1,0,9.6,2,13.4,5.9c3.8,3.9,5.7,9.2,5.7,15.8v25.4c0,1.1-0.7,2.1-2.1,3c-1.4,0.9-3,1.4-4.9,1.4    c-1.8,0-3.4-0.5-4.8-1.4c-1.4-0.9-2.1-1.9-2.1-3v-25.3c0-3-0.9-5.4-2.6-7.1s-3.7-2.6-6.1-2.6c-2.3,0-4.3,0.9-5.9,2.6    c-1.7,1.7-2.5,4.1-2.5,7v25.5c0,1.4-0.7,2.5-2,3.2c-1.4,0.7-3,1.1-4.9,1.1c-1.8,0-3.4-0.4-4.8-1.1c-1.4-0.7-2.1-1.8-2.1-3.1v-25.4    c0-2.8-0.9-5.2-2.6-6.9c-1.7-1.8-3.8-2.7-6.2-2.7c-2.3,0-4.2,0.9-5.9,2.6c-1.6,1.7-2.5,4.1-2.5,7v25.3c0,1.1-0.7,2.1-2.1,3    c-1.4,0.9-3,1.4-4.9,1.4c-1.9,0-3.5-0.4-4.9-1.3C227.9,510.6,227.3,509.6,227.3,508.4z"
   id="path56" />
		<path
   class="st5"
   d="M309.9,440.8c0-2,0.7-3.7,2-5.1c1.3-1.4,3-2.1,4.9-2.1s3.6,0.7,4.9,2.1c1.4,1.4,2.1,3.1,2.1,5    c0,1.3-2,6.5-6,15.7c-0.5,1.1-1.4,1.7-2.8,1.7c-1.1,0-2.1-0.3-3.1-1c-1-0.7-1.5-1.6-1.5-2.6c0-0.5,0.1-1,0.4-1.5l2.5-5.7    C311,445.9,309.9,443.7,309.9,440.8z"
   id="path58" />
		<path
   class="st2"
   d="M331,444.6c0-1.7,0.8-3.1,2.3-4.3c1.5-1.2,3.4-1.8,5.6-1.8c2,0,3.7,0.6,5.1,1.8c1.4,1.2,2.1,2.6,2.1,4.3    c0,1.6-0.7,3-2.1,4.3c-1.4,1.2-3.1,1.8-5.1,1.8c-2.2,0-4.1-0.6-5.6-1.8C331.8,447.6,331,446.2,331,444.6z M332.3,508.4v-42.2    c0-1.3,0.6-2.3,1.9-3.1c1.2-0.8,2.8-1.2,4.7-1.2c1.9,0,3.5,0.4,4.8,1.2c1.3,0.8,1.9,1.8,1.9,3.1v42.2c0,1.1-0.7,2.1-2,3    c-1.3,0.9-2.9,1.4-4.7,1.4c-1.9,0-3.4-0.4-4.7-1.3C333,510.6,332.3,509.6,332.3,508.4z"
   id="path60" />
		<path
   class="st2"
   d="M354.5,491.9v-8.8c0-5.9,1.9-11,5.6-15.3c3.7-4.3,8.2-6.4,13.4-6.4c3.1,0,5.9,0.8,8.3,2.4    c2.4,1.6,4.2,3.5,5.5,5.8v-32.8c0-1.3,0.7-2.3,2-3.1c1.3-0.8,3-1.2,5-1.2c2,0,3.6,0.4,4.9,1.2c1.3,0.8,1.9,1.8,1.9,3.1v71.7    c0,1.1-0.7,2.2-2,3c-1.3,0.9-2.9,1.3-4.9,1.3c-1.6,0-3.1-0.5-4.3-1.4c-1.2-0.9-1.9-1.9-1.9-3v-3.1c-1.1,2.3-3.1,4.3-5.8,6    c-2.7,1.7-5.8,2.5-9,2.5c-4.9,0-9.3-2.2-13.1-6.6C356.4,502.7,354.5,497.6,354.5,491.9z M368.3,491.8c0,2.5,0.9,4.7,2.8,6.7    c1.9,2,4,3,6.5,3c2.5,0,4.7-1,6.7-2.9c2-1.9,3-3.6,3-4.9v-10.6c0-2.8-1-5.1-2.9-6.9c-2-1.8-4.2-2.7-6.7-2.7c-2.6,0-4.8,1-6.6,2.9    c-1.9,1.9-2.8,4.2-2.8,6.6V491.8z"
   id="path62" />
		<path
   class="st2"
   d="M410,491.9v-9.1c0-5.8,2.3-10.9,6.8-15.1c4.6-4.2,10.1-6.3,16.6-6.3c6.1,0,11.3,1.9,15.6,5.8    c4.3,3.8,6.5,8.7,6.5,14.5c0,2.1-0.3,3.9-0.8,5.2c-0.5,1.4-1.4,2.3-2.5,2.9c-1.1,0.6-2.1,0.9-3,1.1c-0.9,0.1-2.1,0.2-3.6,0.2    h-21.7v1.6c0,3.1,1.1,5.5,3.4,7.4c2.3,1.9,5.3,2.8,9.1,2.8c2.7,0,5.4-0.7,8-2c2.6-1.4,4.3-2,5.1-2c1.5,0,2.7,0.7,3.7,2.1    c1,1.4,1.5,2.7,1.5,4c0,2-1.8,4-5.4,5.9c-3.6,2-8.1,2.9-13.4,2.9c-7.6,0-13.9-2-18.7-6C412.4,503.7,410,498.4,410,491.9z     M422.7,446.8c0-1.6,0.6-2.7,1.8-3.3l14.1-6.8c0.7-0.1,1.2-0.2,1.4-0.2c1.1,0,2.1,0.6,3,1.7c0.9,1.1,1.3,2.3,1.3,3.6    c0,1.6-0.6,2.6-1.9,3.2l-13.9,6.7c-0.7,0.3-1.2,0.4-1.5,0.4c-1.1,0-2.1-0.6-3-1.7C423.2,449.2,422.7,448,422.7,446.8z     M423.8,482.9h15.6c1.1,0,1.9-0.2,2.4-0.6c0.5-0.4,0.7-1.1,0.7-2.1c0-2.3-0.9-4.2-2.7-5.7c-1.8-1.5-4-2.2-6.7-2.2    c-2.5,0-4.7,0.7-6.5,2.1c-1.9,1.4-2.8,3.3-2.8,5.6V482.9z"
   id="path64" />
		<path
   class="st2"
   d="M461.8,491.9v-9.1c0-5.8,2.3-10.9,6.8-15.1c4.6-4.2,10.1-6.3,16.6-6.3c6.1,0,11.3,1.9,15.6,5.8    c4.3,3.8,6.5,8.7,6.5,14.5c0,2.1-0.3,3.9-0.8,5.2c-0.5,1.4-1.4,2.3-2.5,2.9c-1.1,0.6-2.1,0.9-3,1.1c-0.9,0.1-2.1,0.2-3.6,0.2    h-21.7v1.6c0,3.1,1.1,5.5,3.4,7.4c2.3,1.9,5.3,2.8,9.1,2.8c2.7,0,5.4-0.7,8-2c2.6-1.4,4.3-2,5.1-2c1.5,0,2.7,0.7,3.7,2.1    c1,1.4,1.5,2.7,1.5,4c0,2-1.8,4-5.4,5.9c-3.6,2-8.1,2.9-13.4,2.9c-7.6,0-13.9-2-18.7-6C464.2,503.7,461.8,498.4,461.8,491.9z     M475.6,482.9h15.6c1.1,0,1.9-0.2,2.4-0.6c0.5-0.4,0.7-1.1,0.7-2.1c0-2.3-0.9-4.2-2.7-5.7c-1.8-1.5-4-2.2-6.7-2.2    c-2.5,0-4.7,0.7-6.5,2.1c-1.9,1.4-2.8,3.3-2.8,5.6V482.9z"
   id="path66" />
		<path
   class="st2"
   d="M512.3,504.6c0-1.3,0.5-2.6,1.4-4c0.9-1.4,2-2.1,3.2-2.1c0.8,0,1.8,0.4,3,1.1c1.2,0.7,2.8,1.4,4.7,2.2    c1.9,0.7,4.3,1.1,6.9,1.1c5.3,0,7.9-1.5,7.9-4.5c0-1.7-0.9-3-2.6-4c-1.7-1-3.9-1.8-6.3-2.4c-2.5-0.6-4.9-1.4-7.4-2.2    c-2.5-0.9-4.6-2.3-6.4-4.4c-1.7-2-2.6-4.7-2.6-7.9c0-4.4,1.5-8.2,4.6-11.4c3.1-3.2,7.9-4.8,14.6-4.8c4.4,0,8.4,0.7,11.8,2    c3.5,1.4,5.2,3,5.2,4.9c0,1.2-0.5,2.6-1.4,4.2s-2.2,2.4-3.6,2.4c-0.6,0-2.1-0.4-4.7-1.3c-2.5-0.9-4.9-1.3-7.1-1.3    c-2.4,0-4.3,0.5-5.6,1.5s-1.9,2-1.9,3.2c0,1.2,0.6,2.2,1.9,2.9s2.9,1.4,4.8,1.8c1.9,0.4,3.9,1,6.1,1.7c2.2,0.7,4.2,1.6,6,2.6    s3.4,2.5,4.7,4.5c1.3,2,1.9,4.5,1.9,7.4c0,4.9-1.7,8.8-5.2,11.7c-3.5,2.8-8.3,4.3-14.5,4.3c-5.3,0-9.9-0.9-13.7-2.8    C514.2,509.1,512.3,507,512.3,504.6z"
   id="path68" />
	</g>
	<g
   id="g86">
		<path
   class="st5"
   d="M435.6,246.4c0,57-117.2,156.3-117.2,156.3s-117.2-99.3-117.2-156.3"
   id="path72" />
		<circle
   class="st5"
   cx="376.9"
   cy="246.4"
   r="58.6"
   id="circle74" />
		<path
   class="st2"
   d="M359.2,128.2c-11.8-11-26.7-16.4-41.6-16.4l0,0c-14.9,0-29.9,5.5-41.6,16.4c-23.1,21.5-26.5,57.1-8.3,82.8    c8.5,11.1,13,24.7,13,38.6c0,3.3,1.3,6.5,3.6,8.9c1.3,1.3,2.9,2.3,4.6,2.9v34.2c0,8.9,7,16.7,15.5,16.7H331    c8.3,0,15.3-7.9,15.3-16.7c0-0.2,0-11,0-20.9v-13.3c1.7-0.6,3.3-1.6,4.6-2.9c2.3-2.3,3.6-5.5,3.6-8.9c0-13.9,4.6-27.5,13-38.6    C385.8,185.3,382.3,149.7,359.2,128.2z"
   id="path76" />
		<line
   class="st6"
   x1="318.3"
   y1="99.6"
   x2="318.3"
   y2="73.8"
   id="line78" />
		<line
   class="st6"
   x1="370.5"
   y1="120.2"
   x2="388.7"
   y2="101.9"
   id="line80" />
		<line
   class="st6"
   x1="265.9"
   y1="120.2"
   x2="247.6"
   y2="101.9"
   id="line82" />
		<circle
   class="st5"
   cx="259.7"
   cy="246.4"
   r="58.6"
   id="circle84" />
	</g>
</g>
</svg>
