<?xml version="1.0" encoding="UTF-8" standalone="no"?>
<!-- Generator: Adobe Illustrator 22.0.0, SVG Export Plug-In . SVG Version: 6.00 Build 0)  -->

<svg
   version="1.1"
   id="Calque_1"
   x="0px"
   y="0px"
   viewBox="0 0 707.8 255.2"
   style="enable-background:new 0 0 707.8 255.2;"
   xml:space="preserve"
   sodipodi:docname="intim-idees-horizontal-fond-rouge.svg"
   inkscape:version="1.1.1 (26b7af14f2, 2022-01-19)"
   xmlns:inkscape="http://www.inkscape.org/namespaces/inkscape"
   xmlns:sodipodi="http://sodipodi.sourceforge.net/DTD/sodipodi-0.dtd"
   xmlns="http://www.w3.org/2000/svg"
   xmlns:svg="http://www.w3.org/2000/svg"><defs
   id="defs89" /><sodipodi:namedview
   id="namedview87"
   pagecolor="#ad0042"
   bordercolor="#666666"
   borderopacity="1.0"
   inkscape:pageshadow="2"
   inkscape:pageopacity="1"
   inkscape:pagecheckerboard="0"
   showgrid="false"
   inkscape:zoom="0.47965528"
   inkscape:cx="21.890721"
   inkscape:cy="462.83239"
   inkscape:window-width="1920"
   inkscape:window-height="1018"
   inkscape:window-x="218"
   inkscape:window-y="1440"
   inkscape:window-maximized="1"
   inkscape:current-layer="Calque_1" />
<style
   type="text/css"
   id="style2">
	.st0{fill:#20336B;}
	.st1{fill:#AD0042;}
	.st2{fill:#FCB315;}
	.st3{fill:none;}
	.st4{fill:#919191;}
	.st5{fill:#FFFFFF;}
	.st6{fill:#FCB315;stroke:#FCB315;stroke-width:5;stroke-linecap:round;stroke-miterlimit:10;}
</style>
<g
   id="g44">
	<rect
   x="207"
   y="191.6"
   class="st3"
   width="488"
   height="34"
   id="rect4" />
	<path
   class="st4"
   d="M208.5,220c0-0.3,0.1-0.7,0.4-1.1c0.3-0.4,0.6-0.5,0.9-0.5c0.2,0,0.5,0.2,0.9,0.6l1.2,1.2   c0.4,0.5,1.1,0.9,2,1.2c0.9,0.4,2,0.5,3.2,0.5c2,0,3.6-0.5,4.7-1.5c1.1-1,1.7-2.5,1.7-4.4c0-1.3-0.3-2.4-0.8-3.3   c-0.5-0.9-1.2-1.6-2-2.1c-0.8-0.5-1.7-1-2.8-1.4l-3.1-1.2c-1-0.4-2-0.9-2.8-1.4c-0.8-0.6-1.5-1.3-2-2.4c-0.5-1-0.8-2.2-0.8-3.6   c0-1.5,0.3-2.8,0.8-3.9s1.3-1.9,2.3-2.4c0.9-0.5,1.9-0.9,2.9-1.2c1-0.2,2-0.4,3.1-0.4c1.7,0,3.4,0.3,4.9,0.8   c1.5,0.5,2.3,1.1,2.3,1.9c0,0.3-0.1,0.7-0.4,1.1c-0.2,0.4-0.5,0.5-0.9,0.5c-0.2,0-0.5-0.1-1-0.4c-0.5-0.3-1.2-0.5-2-0.8   s-1.9-0.4-3-0.4c-1.8,0-3.3,0.4-4.5,1.2c-1.2,0.8-1.8,2-1.8,3.8c0,1.2,0.4,2.3,1.1,3.1c0.7,0.8,1.6,1.4,2.6,1.8   c1.1,0.4,2.2,0.8,3.4,1.3c1.2,0.5,2.4,1.1,3.4,1.7c1.1,0.6,1.9,1.5,2.6,2.8c0.7,1.3,1.1,2.8,1.1,4.7c0,2.9-0.8,5.1-2.5,6.6   c-1.6,1.5-3.8,2.2-6.6,2.2c-2.5,0-4.6-0.5-6.3-1.6C209.3,222,208.5,221,208.5,220z"
   id="path6" />
	<path
   class="st4"
   d="M229.7,194.5c0-0.5,0.2-1,0.6-1.4c0.4-0.4,0.8-0.6,1.3-0.6c0.5,0,1,0.2,1.3,0.6c0.4,0.4,0.6,0.9,0.6,1.4   c0,0.6-0.5,2.3-1.6,4.9c-0.2,0.3-0.4,0.5-0.7,0.5c-0.3,0-0.5-0.1-0.7-0.3s-0.3-0.4-0.3-0.6c0-0.2,0-0.3,0.1-0.4l0.8-2.2   c-0.4-0.1-0.7-0.4-0.9-0.7C229.9,195.2,229.7,194.9,229.7,194.5z"
   id="path8" />
	<path
   class="st4"
   d="M236.1,216.5v-4.8c0-2.1,0.8-4,2.4-5.6c1.6-1.6,3.5-2.3,5.8-2.3c2.2,0,4.1,0.7,5.7,2.2   c1.6,1.5,2.4,3.4,2.4,5.6c0,0.8-0.1,1.4-0.3,1.9c-0.2,0.5-0.5,0.8-0.9,1s-0.8,0.3-1.1,0.4c-0.3,0.1-0.8,0.1-1.4,0.1h-9.7v1.6   c0,1.7,0.6,3,1.8,4.1c1.2,1,2.8,1.5,4.7,1.5c1,0,1.8-0.1,2.6-0.4c0.7-0.3,1.3-0.6,1.7-0.9c0.4-0.3,0.7-0.4,0.9-0.4   c0.3,0,0.6,0.2,0.8,0.5c0.2,0.3,0.4,0.6,0.4,0.9c0,0.6-0.6,1.2-1.8,1.9s-2.8,1-4.6,1c-2.7,0-4.9-0.8-6.7-2.3   C237,220.9,236.1,218.9,236.1,216.5z M238.9,212.9h8.6c0.9,0,1.4-0.1,1.7-0.3s0.4-0.6,0.4-1.2c0-1.4-0.5-2.7-1.5-3.8   c-1-1.1-2.3-1.6-3.8-1.6c-1.5,0-2.8,0.5-3.8,1.5s-1.6,2.3-1.6,3.7V212.9z"
   id="path10" />
	<path
   class="st4"
   d="M256.6,223.2V205c0-0.3,0.1-0.6,0.4-0.8c0.3-0.2,0.6-0.3,1-0.3c0.3,0,0.6,0.1,0.9,0.3c0.3,0.2,0.4,0.5,0.4,0.7   v2c0.5-0.9,1.2-1.7,2.2-2.4s2.2-1,3.5-1c2.1,0,3.9,0.8,5.4,2.4c1.5,1.6,2.3,3.5,2.3,5.7v11.4c0,0.3-0.1,0.6-0.4,0.8   c-0.3,0.2-0.6,0.3-1,0.3c-0.3,0-0.7-0.1-0.9-0.3s-0.4-0.5-0.4-0.8v-11.4c0-1.4-0.5-2.7-1.6-3.8c-1.1-1.1-2.3-1.7-3.8-1.7   c-1.3,0-2.5,0.5-3.6,1.5c-1,1-1.5,2.3-1.5,3.9v11.4c0,0.3-0.1,0.5-0.4,0.8c-0.3,0.2-0.6,0.3-1,0.3c-0.4,0-0.7-0.1-1-0.3   C256.7,223.8,256.6,223.5,256.6,223.2z"
   id="path12" />
	<path
   class="st4"
   d="M277.9,218v-22.6c0-0.3,0.1-0.5,0.4-0.7c0.3-0.2,0.6-0.3,0.9-0.3c0.4,0,0.7,0.1,1,0.3c0.3,0.2,0.4,0.4,0.4,0.7   v8.6h5.5c0.3,0,0.5,0.1,0.7,0.4s0.3,0.5,0.3,0.8c0,0.3-0.1,0.6-0.3,0.8c-0.2,0.2-0.4,0.4-0.7,0.4h-5.5V218c0,1.4,0.3,2.4,0.9,2.9   c0.6,0.6,1.6,0.8,3.1,0.8h1.2c0.4,0,0.7,0.1,0.9,0.4c0.2,0.3,0.4,0.6,0.4,0.9c0,0.4-0.1,0.7-0.4,0.9c-0.2,0.3-0.6,0.4-0.9,0.4h-1.2   C280.1,224.3,277.9,222.2,277.9,218z"
   id="path14" />
	<path
   class="st4"
   d="M290.7,223.2V205c0-0.3,0.1-0.5,0.4-0.7c0.3-0.2,0.6-0.3,1-0.3c0.4,0,0.7,0.1,0.9,0.3c0.3,0.2,0.4,0.5,0.4,0.7   v2.1c0.5-1,1.3-1.8,2.3-2.4s2.2-1,3.5-1h1.5c0.3,0,0.5,0.1,0.8,0.4c0.2,0.3,0.3,0.6,0.3,0.9c0,0.4-0.1,0.7-0.3,0.9   c-0.2,0.3-0.5,0.4-0.8,0.4h-1.5c-1.5,0-2.8,0.6-4,1.7c-1.1,1.2-1.7,2.7-1.7,4.5v10.6c0,0.3-0.1,0.5-0.4,0.8c-0.3,0.2-0.6,0.3-1,0.3   c-0.4,0-0.7-0.1-1-0.3C290.9,223.8,290.7,223.5,290.7,223.2z"
   id="path16" />
	<path
   class="st4"
   d="M303.5,219c0-2.3,0.9-3.8,2.6-4.7c1.7-0.9,4.2-1.3,7.5-1.3h2.2v-1c0-1.5-0.4-2.9-1.2-4   c-0.8-1.1-2.1-1.7-3.8-1.7c-1.1,0-2.2,0.2-3.1,0.6c-0.9,0.4-1.4,0.6-1.5,0.6c-0.3,0-0.6-0.2-0.8-0.5s-0.3-0.6-0.3-1   c0-0.5,0.6-1,1.8-1.5c1.2-0.5,2.6-0.7,4-0.7c2.7,0,4.7,0.8,5.9,2.3c1.2,1.6,1.9,3.5,1.9,6v11.2c0,0.3-0.1,0.6-0.4,0.8   c-0.3,0.2-0.6,0.3-1,0.3c-0.4,0-0.7-0.1-0.9-0.3c-0.2-0.2-0.4-0.5-0.4-0.8v-1.9c-1.9,2.2-4.1,3.3-6.5,3.3c-1.7,0-3.1-0.5-4.2-1.4   C304.1,222.2,303.5,220.8,303.5,219z M306.3,218.7c0,1.2,0.3,2.1,1,2.7c0.7,0.6,1.6,0.9,2.7,0.9c1.3,0,2.6-0.5,3.8-1.5   c1.2-1,1.8-2,1.8-3V215h-1.8c-1.1,0-2.1,0-2.9,0.1c-0.8,0.1-1.6,0.2-2.3,0.5c-0.8,0.2-1.4,0.6-1.8,1.1   C306.5,217.2,306.3,217.9,306.3,218.7z"
   id="path18" />
	<path
   class="st4"
   d="M323.8,197.4c-0.4-0.4-0.6-0.8-0.6-1.3c0-0.5,0.2-0.9,0.6-1.2c0.4-0.3,0.8-0.5,1.4-0.5c0.5,0,1,0.2,1.3,0.5   c0.4,0.3,0.5,0.8,0.5,1.2c0,0.5-0.2,0.9-0.5,1.3c-0.4,0.4-0.8,0.5-1.3,0.5C324.6,198,324.2,197.8,323.8,197.4z M323.8,223.2V205   c0-0.3,0.1-0.5,0.4-0.7c0.3-0.2,0.6-0.3,1-0.3c0.4,0,0.7,0.1,1,0.3c0.3,0.2,0.4,0.4,0.4,0.7v18.2c0,0.3-0.1,0.5-0.4,0.8   c-0.3,0.2-0.6,0.3-1,0.3c-0.4,0-0.7-0.1-1-0.3C323.9,223.8,323.8,223.5,323.8,223.2z"
   id="path20" />
	<path
   class="st4"
   d="M331.2,216.5v-4.7c0-2.2,0.8-4.1,2.3-5.7c1.5-1.6,3.3-2.4,5.4-2.4c1.3,0,2.5,0.3,3.5,1c1,0.6,1.7,1.4,2.2,2.3   v-14.4c0-0.3,0.1-0.5,0.4-0.7c0.3-0.2,0.6-0.3,1-0.3c0.4,0,0.7,0.1,1,0.3s0.4,0.4,0.4,0.7v30.6c0,0.3-0.1,0.5-0.4,0.8   c-0.3,0.2-0.6,0.3-0.9,0.3c-0.3,0-0.7-0.1-0.9-0.3c-0.3-0.2-0.4-0.5-0.4-0.8v-1.9c-0.5,0.9-1.3,1.7-2.3,2.4c-1.1,0.7-2.3,1-3.5,1   c-2,0-3.8-0.8-5.3-2.5C332,220.5,331.2,218.6,331.2,216.5z M334,216.5c0,1.4,0.5,2.7,1.6,3.8c1.1,1.1,2.3,1.7,3.7,1.7   c1.4,0,2.6-0.5,3.7-1.5c1.1-1,1.6-1.9,1.6-2.7v-6c0-1.6-0.5-2.9-1.6-3.9c-1-1-2.3-1.5-3.6-1.5c-1.5,0-2.7,0.6-3.8,1.7   s-1.6,2.4-1.6,3.8V216.5z"
   id="path22" />
	<path
   class="st4"
   d="M352,216.5v-4.8c0-2.1,0.8-4,2.4-5.6c1.6-1.6,3.5-2.3,5.8-2.3c2.2,0,4.1,0.7,5.7,2.2c1.6,1.5,2.4,3.4,2.4,5.6   c0,0.8-0.1,1.4-0.3,1.9c-0.2,0.5-0.5,0.8-0.9,1c-0.4,0.2-0.8,0.3-1.1,0.4s-0.8,0.1-1.4,0.1h-9.7v1.6c0,1.7,0.6,3,1.8,4.1   c1.2,1,2.8,1.5,4.7,1.5c1,0,1.8-0.1,2.6-0.4c0.7-0.3,1.3-0.6,1.7-0.9c0.4-0.3,0.7-0.4,0.9-0.4c0.3,0,0.6,0.2,0.8,0.5   c0.2,0.3,0.4,0.6,0.4,0.9c0,0.6-0.6,1.2-1.8,1.9s-2.8,1-4.6,1c-2.7,0-4.9-0.8-6.7-2.3C352.9,220.9,352,218.9,352,216.5z    M354.8,212.9h8.6c0.9,0,1.4-0.1,1.7-0.3c0.3-0.2,0.4-0.6,0.4-1.2c0-1.4-0.5-2.7-1.5-3.8c-1-1.1-2.3-1.6-3.8-1.6   c-1.5,0-2.8,0.5-3.8,1.5s-1.6,2.3-1.6,3.7V212.9z"
   id="path24" />
	<path
   class="st4"
   d="M372.5,223.2V205c0-0.3,0.1-0.5,0.4-0.7c0.3-0.2,0.6-0.3,1-0.3c0.4,0,0.7,0.1,0.9,0.3c0.3,0.2,0.4,0.5,0.4,0.7   v2.1c0.5-1,1.3-1.8,2.3-2.4c1-0.7,2.2-1,3.5-1h1.5c0.3,0,0.5,0.1,0.8,0.4c0.2,0.3,0.3,0.6,0.3,0.9c0,0.4-0.1,0.7-0.3,0.9   c-0.2,0.3-0.5,0.4-0.8,0.4H381c-1.5,0-2.8,0.6-4,1.7c-1.1,1.2-1.7,2.7-1.7,4.5v10.6c0,0.3-0.1,0.5-0.4,0.8c-0.3,0.2-0.6,0.3-1,0.3   c-0.4,0-0.7-0.1-1-0.3C372.6,223.8,372.5,223.5,372.5,223.2z"
   id="path26" />
	<path
   class="st4"
   d="M393.9,219c0-2.3,0.9-3.8,2.6-4.7c1.7-0.9,4.2-1.3,7.5-1.3h2.2v-1c0-1.5-0.4-2.9-1.2-4   c-0.8-1.1-2.1-1.7-3.8-1.7c-1.1,0-2.2,0.2-3.1,0.6c-0.9,0.4-1.4,0.6-1.5,0.6c-0.3,0-0.6-0.2-0.8-0.5s-0.3-0.7-0.3-1   c0-0.5,0.6-1,1.8-1.5s2.6-0.7,4-0.7c2.7,0,4.7,0.8,5.9,2.3c1.2,1.6,1.9,3.5,1.9,6v11.2c0,0.3-0.1,0.6-0.4,0.8   c-0.3,0.2-0.6,0.3-1,0.3c-0.4,0-0.7-0.1-0.9-0.3c-0.2-0.2-0.4-0.5-0.4-0.8v-1.9c-1.9,2.2-4.1,3.3-6.5,3.3c-1.7,0-3.1-0.5-4.2-1.4   C394.5,222.2,393.9,220.8,393.9,219z M396.7,218.7c0,1.2,0.3,2.1,1,2.7c0.7,0.6,1.6,0.9,2.7,0.9c1.3,0,2.6-0.5,3.8-1.5   c1.2-1,1.8-2,1.8-3V215h-1.8c-1.1,0-2.1,0-2.9,0.1c-0.8,0.1-1.6,0.2-2.3,0.5c-0.8,0.2-1.4,0.6-1.8,1.1   C396.9,217.2,396.7,217.9,396.7,218.7z M398.1,195.4c0-0.3,0.1-0.6,0.3-0.8c0.2-0.3,0.4-0.4,0.7-0.4c0.1,0,0.2,0,0.4,0.1l4.8,2.6   c0.3,0.1,0.5,0.4,0.5,0.8c0,0.3-0.1,0.6-0.3,0.8c-0.2,0.2-0.5,0.4-0.8,0.4c-0.1,0-0.3,0-0.4-0.1l-4.6-2.5   C398.3,196.2,398.1,195.9,398.1,195.4z"
   id="path28" />
	<path
   class="st4"
   d="M421.5,221.5c0-0.3,0.1-0.6,0.3-0.9s0.4-0.4,0.7-0.4c0.2,0,0.5,0.2,0.9,0.5c0.4,0.3,1,0.7,1.8,1   c0.8,0.3,1.8,0.5,2.9,0.5c1.5,0,2.6-0.3,3.4-0.9c0.7-0.6,1.1-1.3,1.1-2.2c0-1-0.4-1.9-1.1-2.5c-0.7-0.6-1.6-1.1-2.6-1.4   s-2.1-0.6-3.1-0.9c-1-0.3-1.9-0.9-2.7-1.7c-0.7-0.8-1.1-1.8-1.1-3.2c0-1.6,0.6-2.9,1.7-4.1c1.1-1.2,2.8-1.7,5.1-1.7   c1.4,0,2.7,0.2,3.9,0.7c1.2,0.4,1.8,0.9,1.8,1.4c0,0.3-0.1,0.6-0.3,0.9c-0.2,0.3-0.5,0.5-0.8,0.5c-0.1,0-0.6-0.2-1.6-0.6   c-1-0.4-2-0.6-3-0.6c-1.4,0-2.5,0.3-3.2,1s-1.1,1.4-1.1,2.3c0,0.9,0.4,1.6,1.1,2.1s1.6,0.9,2.7,1.2c1,0.3,2.1,0.6,3.1,0.9   s2,0.9,2.7,1.9c0.7,0.9,1.1,2.1,1.1,3.6c0,1.7-0.6,3.1-1.8,4.1c-1.2,1-2.9,1.5-5.1,1.5c-1.9,0-3.5-0.3-4.8-1   C422.1,223,421.5,222.3,421.5,221.5z"
   id="path30" />
	<path
   class="st4"
   d="M437.6,194.5c0-0.5,0.2-1,0.6-1.4c0.4-0.4,0.8-0.6,1.3-0.6c0.5,0,1,0.2,1.3,0.6c0.4,0.4,0.6,0.9,0.6,1.4   c0,0.6-0.5,2.3-1.6,4.9c-0.2,0.3-0.4,0.5-0.7,0.5c-0.3,0-0.5-0.1-0.7-0.3c-0.2-0.2-0.3-0.4-0.3-0.6c0-0.2,0-0.3,0.1-0.4l0.8-2.2   c-0.4-0.1-0.7-0.4-0.9-0.7C437.8,195.2,437.6,194.9,437.6,194.5z"
   id="path32" />
	<path
   class="st4"
   d="M443.5,219c0-2.3,0.9-3.8,2.6-4.7c1.7-0.9,4.2-1.3,7.5-1.3h2.2v-1c0-1.5-0.4-2.9-1.2-4   c-0.8-1.1-2.1-1.7-3.8-1.7c-1.1,0-2.2,0.2-3.1,0.6c-0.9,0.4-1.4,0.6-1.5,0.6c-0.3,0-0.6-0.2-0.8-0.5s-0.3-0.6-0.3-1   c0-0.5,0.6-1,1.8-1.5c1.2-0.5,2.6-0.7,4-0.7c2.7,0,4.7,0.8,5.9,2.3c1.2,1.6,1.9,3.5,1.9,6v11.2c0,0.3-0.1,0.6-0.4,0.8   c-0.3,0.2-0.6,0.3-1,0.3c-0.4,0-0.7-0.1-0.9-0.3c-0.2-0.2-0.4-0.5-0.4-0.8v-1.9c-1.9,2.2-4.1,3.3-6.5,3.3c-1.7,0-3.1-0.5-4.2-1.4   C444.1,222.2,443.5,220.8,443.5,219z M446.3,218.7c0,1.2,0.3,2.1,1,2.7c0.7,0.6,1.6,0.9,2.7,0.9c1.3,0,2.6-0.5,3.8-1.5   c1.2-1,1.8-2,1.8-3V215h-1.8c-1.1,0-2.1,0-2.9,0.1c-0.8,0.1-1.6,0.2-2.3,0.5c-0.8,0.2-1.4,0.6-1.8,1.1   C446.5,217.2,446.3,217.9,446.3,218.7z"
   id="path34" />
	<path
   class="st4"
   d="M463.8,197.4c-0.4-0.4-0.6-0.8-0.6-1.3c0-0.5,0.2-0.9,0.6-1.2c0.4-0.3,0.8-0.5,1.4-0.5c0.5,0,1,0.2,1.3,0.5   c0.4,0.3,0.5,0.8,0.5,1.2c0,0.5-0.2,0.9-0.5,1.3c-0.4,0.4-0.8,0.5-1.3,0.5C464.6,198,464.2,197.8,463.8,197.4z M463.8,223.2V205   c0-0.3,0.1-0.5,0.4-0.7c0.3-0.2,0.6-0.3,1-0.3s0.7,0.1,1,0.3c0.3,0.2,0.4,0.4,0.4,0.7v18.2c0,0.3-0.1,0.5-0.4,0.8   c-0.3,0.2-0.6,0.3-1,0.3c-0.4,0-0.7-0.1-1-0.3C463.9,223.8,463.8,223.5,463.8,223.2z"
   id="path36" />
	<path
   class="st4"
   d="M472,223.2V205c0-0.3,0.1-0.5,0.4-0.7c0.3-0.2,0.6-0.3,1-0.3c0.4,0,0.7,0.1,0.9,0.3c0.3,0.2,0.4,0.5,0.4,0.7v2   c0.5-1,1.3-1.7,2.3-2.4c1-0.6,2.1-0.9,3.5-0.9c1.4,0,2.6,0.4,3.7,1.2c1.1,0.8,1.9,1.8,2.4,3.1c0.7-1.4,1.7-2.5,2.8-3.2   c1.2-0.7,2.4-1.1,3.7-1.1c1.9,0,3.6,0.7,5.1,2.2c1.4,1.5,2.2,3.4,2.2,5.8v11.4c0,0.3-0.1,0.5-0.4,0.8c-0.3,0.2-0.6,0.3-1,0.3   c-0.4,0-0.7-0.1-1-0.3c-0.3-0.2-0.4-0.5-0.4-0.8v-11.4c0-1.7-0.5-3-1.5-4s-2.1-1.5-3.4-1.5c-1.3,0-2.5,0.5-3.5,1.5   c-1,1-1.5,2.3-1.5,3.8v11.6c0,0.7-0.5,1.1-1.4,1.1c-0.9,0-1.4-0.4-1.4-1.1v-11.6c0-1.5-0.5-2.8-1.4-3.8c-1-1-2.1-1.5-3.5-1.5   c-1.3,0-2.5,0.5-3.5,1.5s-1.5,2.3-1.5,4v11.4c0,0.3-0.1,0.5-0.4,0.8c-0.3,0.2-0.6,0.3-1,0.3c-0.4,0-0.7-0.1-1-0.3   C472.1,223.8,472,223.5,472,223.2z"
   id="path38" />
	<path
   class="st4"
   d="M504.8,216.5v-4.8c0-2.1,0.8-4,2.4-5.6c1.6-1.6,3.5-2.3,5.8-2.3c2.2,0,4.1,0.7,5.7,2.2s2.4,3.4,2.4,5.6   c0,0.8-0.1,1.4-0.3,1.9s-0.5,0.8-0.9,1c-0.4,0.2-0.8,0.3-1.1,0.4s-0.8,0.1-1.4,0.1h-9.7v1.6c0,1.7,0.6,3,1.8,4.1   c1.2,1,2.8,1.5,4.7,1.5c1,0,1.8-0.1,2.6-0.4c0.7-0.3,1.3-0.6,1.7-0.9c0.4-0.3,0.7-0.4,0.9-0.4c0.3,0,0.6,0.2,0.8,0.5   c0.2,0.3,0.4,0.6,0.4,0.9c0,0.6-0.6,1.2-1.8,1.9c-1.2,0.6-2.8,1-4.6,1c-2.7,0-4.9-0.8-6.7-2.3C505.6,220.9,504.8,218.9,504.8,216.5   z M507.6,212.9h8.6c0.9,0,1.4-0.1,1.7-0.3c0.3-0.2,0.4-0.6,0.4-1.2c0-1.4-0.5-2.7-1.5-3.8c-1-1.1-2.3-1.6-3.8-1.6   c-1.5,0-2.8,0.5-3.8,1.5c-1,1-1.6,2.3-1.6,3.7V212.9z"
   id="path40" />
	<path
   class="st4"
   d="M525.2,223.2V205c0-0.3,0.1-0.5,0.4-0.7c0.3-0.2,0.6-0.3,1-0.3c0.4,0,0.7,0.1,0.9,0.3c0.3,0.2,0.4,0.5,0.4,0.7   v2.1c0.5-1,1.3-1.8,2.3-2.4c1-0.7,2.2-1,3.5-1h1.5c0.3,0,0.5,0.1,0.8,0.4c0.2,0.3,0.3,0.6,0.3,0.9c0,0.4-0.1,0.7-0.3,0.9   c-0.2,0.3-0.5,0.4-0.8,0.4h-1.5c-1.5,0-2.8,0.6-4,1.7c-1.1,1.2-1.7,2.7-1.7,4.5v10.6c0,0.3-0.1,0.5-0.4,0.8c-0.3,0.2-0.6,0.3-1,0.3   c-0.4,0-0.7-0.1-1-0.3C525.4,223.8,525.2,223.5,525.2,223.2z"
   id="path42" />
</g>
<g
   id="g70">
	<rect
   x="206.6"
   y="104.3"
   class="st3"
   width="479.4"
   height="93"
   id="rect46" />
	<path
   class="st5"
   d="M211.2,116.4c0-1.7,0.8-3.1,2.3-4.3c1.5-1.2,3.4-1.8,5.6-1.8c2,0,3.7,0.6,5.1,1.8c1.4,1.2,2.1,2.6,2.1,4.3   c0,1.6-0.7,3-2.1,4.3c-1.4,1.2-3.1,1.8-5.1,1.8c-2.2,0-4.1-0.6-5.6-1.8C211.9,119.4,211.2,118,211.2,116.4z M212.4,180.3v-42.2   c0-1.3,0.6-2.3,1.9-3.1c1.2-0.8,2.8-1.2,4.7-1.2s3.5,0.4,4.8,1.2c1.3,0.8,1.9,1.8,1.9,3.1v42.2c0,1.1-0.7,2.1-2,3   c-1.3,0.9-2.9,1.4-4.7,1.4c-1.9,0-3.4-0.4-4.7-1.3C213.1,182.4,212.4,181.4,212.4,180.3z"
   id="path48" />
	<path
   class="st5"
   d="M236.4,180.3v-42.2c0-1.3,0.6-2.3,1.9-3.1c1.2-0.8,2.9-1.2,5-1.2c1.7,0,3.2,0.4,4.3,1.2   c1.2,0.8,1.8,1.8,1.8,3.1v3.2c1.1-2.3,3-4.2,5.5-5.8c2.5-1.6,5.5-2.4,8.8-2.4c4.9,0,9.2,2.1,12.9,6.4c3.7,4.3,5.5,9.4,5.5,15.3   v25.4c0,1.4-0.7,2.4-2.1,3.2c-1.4,0.8-3,1.2-4.9,1.2c-1.8,0-3.4-0.4-4.8-1.2c-1.4-0.8-2.1-1.8-2.1-3.2V155c0-2.5-0.9-4.7-2.8-6.7   c-1.9-2-4-2.9-6.5-2.9c-2.4,0-4.4,0.9-6.2,2.7c-1.7,1.8-2.6,4.1-2.6,6.9v25.3c0,1.1-0.7,2.1-2.1,3c-1.4,0.9-3,1.4-4.9,1.4   c-1.9,0-3.5-0.4-4.9-1.3C237.1,182.4,236.4,181.4,236.4,180.3z"
   id="path50" />
	<path
   class="st5"
   d="M292.3,167.5v-51.3c0-1.2,0.7-2.2,2.1-3c1.4-0.8,3-1.2,4.7-1.2c1.9,0,3.5,0.4,4.9,1.2s2.1,1.8,2.1,2.9v17.7   h12.6c1.1,0,1.9,0.5,2.6,1.6c0.6,1.1,1,2.4,1,3.8c0,1.5-0.3,2.7-1,3.8c-0.6,1.1-1.5,1.6-2.6,1.6h-12.6V167c0,2,0.4,3.4,1.3,4.2   c0.9,0.8,2.4,1.2,4.7,1.2h4.2c1.9,0,3.3,0.6,4.3,1.8c1,1.2,1.6,2.6,1.6,4.3c0,1.7-0.5,3.2-1.6,4.4c-1,1.2-2.5,1.8-4.3,1.8h-4.2   C298.9,184.6,292.3,178.9,292.3,167.5z"
   id="path52" />
	<path
   class="st5"
   d="M328.8,116.4c0-1.7,0.8-3.1,2.3-4.3c1.5-1.2,3.4-1.8,5.6-1.8c2,0,3.7,0.6,5.1,1.8c1.4,1.2,2.1,2.6,2.1,4.3   c0,1.6-0.7,3-2.1,4.3c-1.4,1.2-3.1,1.8-5.1,1.8c-2.2,0-4.1-0.6-5.6-1.8C329.5,119.4,328.8,118,328.8,116.4z M330,180.3v-42.2   c0-1.3,0.6-2.3,1.9-3.1c1.2-0.8,2.8-1.2,4.7-1.2c1.9,0,3.5,0.4,4.8,1.2c1.3,0.8,1.9,1.8,1.9,3.1v42.2c0,1.1-0.7,2.1-2,3   c-1.3,0.9-2.9,1.4-4.7,1.4c-1.9,0-3.4-0.4-4.7-1.3C330.7,182.4,330,181.4,330,180.3z"
   id="path54" />
	<path
   class="st5"
   d="M354,180.3v-42.2c0-1.3,0.6-2.3,1.9-3.1c1.2-0.8,2.9-1.2,5-1.2c1.7,0,3.2,0.4,4.3,1.2c1.2,0.8,1.8,1.8,1.8,3.1   v3.2c3.1-5.5,7.8-8.2,14.1-8.2c3,0,5.7,1,8.1,3c2.4,2,4.2,4.6,5.3,7.8c1.8-3.5,4.1-6.2,7-8c2.9-1.8,5.9-2.8,9.1-2.8   c5.1,0,9.6,2,13.4,5.9c3.8,3.9,5.7,9.2,5.7,15.8v25.4c0,1.1-0.7,2.1-2.1,3c-1.4,0.9-3,1.4-4.9,1.4c-1.8,0-3.4-0.5-4.8-1.4   c-1.4-0.9-2.1-1.9-2.1-3V155c0-3-0.9-5.4-2.6-7.1s-3.7-2.6-6.1-2.6c-2.3,0-4.3,0.9-5.9,2.6c-1.7,1.7-2.5,4.1-2.5,7v25.5   c0,1.4-0.7,2.5-2,3.2c-1.4,0.7-3,1.1-4.9,1.1c-1.8,0-3.4-0.4-4.8-1.1c-1.4-0.7-2.1-1.8-2.1-3.1V155c0-2.8-0.9-5.2-2.6-6.9   c-1.7-1.8-3.8-2.7-6.2-2.7c-2.3,0-4.2,0.9-5.9,2.6c-1.6,1.7-2.5,4.1-2.5,7v25.3c0,1.1-0.7,2.1-2.1,3c-1.4,0.9-3,1.4-4.9,1.4   c-1.9,0-3.5-0.4-4.9-1.3C354.7,182.4,354,181.4,354,180.3z"
   id="path56" />
	<path
   class="st5"
   d="M436.6,112.6c0-2,0.7-3.7,2-5.1c1.3-1.4,3-2.1,4.9-2.1s3.6,0.7,4.9,2.1c1.4,1.4,2.1,3.1,2.1,5   c0,1.3-2,6.5-6,15.7c-0.5,1.1-1.4,1.7-2.8,1.7c-1.1,0-2.1-0.3-3.1-1c-1-0.7-1.5-1.6-1.5-2.6c0-0.5,0.1-1,0.4-1.5l2.5-5.7   C437.7,117.7,436.6,115.6,436.6,112.6z"
   id="path58" />
	<path
   class="st2"
   d="M457.8,116.4c0-1.7,0.8-3.1,2.3-4.3c1.5-1.2,3.4-1.8,5.6-1.8c2,0,3.7,0.6,5.1,1.8c1.4,1.2,2.1,2.6,2.1,4.3   c0,1.6-0.7,3-2.1,4.3c-1.4,1.2-3.1,1.8-5.1,1.8c-2.2,0-4.1-0.6-5.6-1.8C458.6,119.4,457.8,118,457.8,116.4z M459.1,180.3v-42.2   c0-1.3,0.6-2.3,1.9-3.1c1.2-0.8,2.8-1.2,4.7-1.2c1.9,0,3.5,0.4,4.8,1.2c1.3,0.8,1.9,1.8,1.9,3.1v42.2c0,1.1-0.7,2.1-2,3   c-1.3,0.9-2.9,1.4-4.7,1.4c-1.9,0-3.4-0.4-4.7-1.3C459.7,182.4,459.1,181.4,459.1,180.3z"
   id="path60" />
	<path
   class="st2"
   d="M481.2,163.7v-8.8c0-5.9,1.9-11,5.6-15.3c3.7-4.3,8.2-6.4,13.4-6.4c3.1,0,5.9,0.8,8.3,2.4   c2.4,1.6,4.2,3.5,5.5,5.8v-32.8c0-1.3,0.7-2.3,2-3.1c1.3-0.8,3-1.2,5-1.2c2,0,3.6,0.4,4.9,1.2c1.3,0.8,1.9,1.8,1.9,3.1v71.7   c0,1.1-0.7,2.2-2,3c-1.3,0.9-2.9,1.3-4.9,1.3c-1.6,0-3.1-0.5-4.3-1.4c-1.2-0.9-1.9-1.9-1.9-3v-3.1c-1.1,2.3-3.1,4.3-5.8,6   c-2.7,1.7-5.8,2.5-9,2.5c-4.9,0-9.3-2.2-13.1-6.6C483.1,174.6,481.2,169.5,481.2,163.7z M495,163.6c0,2.5,0.9,4.7,2.8,6.7   c1.9,2,4,3,6.5,3c2.5,0,4.7-1,6.7-2.9c2-1.9,3-3.6,3-4.9v-10.6c0-2.8-1-5.1-2.9-6.9c-2-1.8-4.2-2.7-6.7-2.7c-2.6,0-4.8,1-6.6,2.9   c-1.9,1.9-2.8,4.2-2.8,6.6V163.6z"
   id="path62" />
	<path
   class="st2"
   d="M536.8,163.7v-9.1c0-5.8,2.3-10.9,6.8-15.1c4.6-4.2,10.1-6.3,16.6-6.3c6.1,0,11.3,1.9,15.6,5.8   c4.3,3.8,6.5,8.7,6.5,14.5c0,2.1-0.3,3.9-0.8,5.2c-0.5,1.4-1.4,2.3-2.5,2.9c-1.1,0.6-2.1,0.9-3,1.1c-0.9,0.1-2.1,0.2-3.6,0.2h-21.7   v1.6c0,3.1,1.1,5.5,3.4,7.4c2.3,1.9,5.3,2.8,9.1,2.8c2.7,0,5.4-0.7,8-2c2.6-1.4,4.3-2,5.1-2c1.5,0,2.7,0.7,3.7,2.1   c1,1.4,1.5,2.7,1.5,4c0,2-1.8,4-5.4,5.9c-3.6,2-8.1,2.9-13.4,2.9c-7.6,0-13.9-2-18.7-6C539.2,175.5,536.8,170.2,536.8,163.7z    M549.5,118.6c0-1.6,0.6-2.7,1.8-3.3l14.1-6.8c0.7-0.1,1.2-0.2,1.4-0.2c1.1,0,2.1,0.6,3,1.7c0.9,1.1,1.3,2.3,1.3,3.6   c0,1.6-0.6,2.6-1.9,3.2l-13.9,6.7c-0.7,0.3-1.2,0.4-1.5,0.4c-1.1,0-2.1-0.6-3-1.7C549.9,121,549.5,119.8,549.5,118.6z M550.6,154.7   h15.6c1.1,0,1.9-0.2,2.4-0.6c0.5-0.4,0.7-1.1,0.7-2.1c0-2.3-0.9-4.2-2.7-5.7c-1.8-1.5-4-2.2-6.7-2.2c-2.5,0-4.7,0.7-6.5,2.1   c-1.9,1.4-2.8,3.3-2.8,5.6V154.7z"
   id="path64" />
	<path
   class="st2"
   d="M588.5,163.7v-9.1c0-5.8,2.3-10.9,6.8-15.1c4.6-4.2,10.1-6.3,16.6-6.3c6.1,0,11.3,1.9,15.6,5.8   c4.3,3.8,6.5,8.7,6.5,14.5c0,2.1-0.3,3.9-0.8,5.2c-0.5,1.4-1.4,2.3-2.5,2.9c-1.1,0.6-2.1,0.9-3,1.1c-0.9,0.1-2.1,0.2-3.6,0.2h-21.7   v1.6c0,3.1,1.1,5.5,3.4,7.4c2.3,1.9,5.3,2.8,9.1,2.8c2.7,0,5.4-0.7,8-2c2.6-1.4,4.3-2,5.1-2c1.5,0,2.7,0.7,3.7,2.1   c1,1.4,1.5,2.7,1.5,4c0,2-1.8,4-5.4,5.9c-3.6,2-8.1,2.9-13.4,2.9c-7.6,0-13.9-2-18.7-6C591,175.5,588.5,170.2,588.5,163.7z    M602.3,154.7H618c1.1,0,1.9-0.2,2.4-0.6c0.5-0.4,0.7-1.1,0.7-2.1c0-2.3-0.9-4.2-2.7-5.7c-1.8-1.5-4-2.2-6.7-2.2   c-2.5,0-4.7,0.7-6.5,2.1c-1.9,1.4-2.8,3.3-2.8,5.6V154.7z"
   id="path66" />
	<path
   class="st2"
   d="M639,176.4c0-1.3,0.5-2.6,1.4-4c0.9-1.4,2-2.1,3.2-2.1c0.8,0,1.8,0.4,3,1.1c1.2,0.7,2.8,1.4,4.7,2.2   c1.9,0.7,4.3,1.1,6.9,1.1c5.3,0,7.9-1.5,7.9-4.5c0-1.7-0.9-3-2.6-4c-1.7-1-3.9-1.8-6.3-2.4c-2.5-0.6-4.9-1.4-7.4-2.2   c-2.5-0.9-4.6-2.3-6.4-4.4c-1.7-2-2.6-4.7-2.6-7.9c0-4.4,1.5-8.2,4.6-11.4c3.1-3.2,7.9-4.8,14.6-4.8c4.4,0,8.4,0.7,11.8,2   c3.5,1.4,5.2,3,5.2,4.9c0,1.2-0.5,2.6-1.4,4.2s-2.2,2.4-3.6,2.4c-0.6,0-2.1-0.4-4.7-1.3c-2.5-0.9-4.9-1.3-7.1-1.3   c-2.4,0-4.3,0.5-5.6,1.5c-1.3,1-1.9,2-1.9,3.2c0,1.2,0.6,2.2,1.9,2.9c1.3,0.8,2.9,1.4,4.8,1.8c1.9,0.4,3.9,1,6.1,1.7   c2.2,0.7,4.2,1.6,6,2.5c1.9,1,3.4,2.5,4.7,4.5c1.3,2,1.9,4.5,1.9,7.4c0,4.9-1.7,8.8-5.2,11.7c-3.5,2.8-8.3,4.3-14.5,4.3   c-5.3,0-9.9-0.9-13.7-2.8C640.9,181,639,178.8,639,176.4z"
   id="path68" />
</g>
<path
   class="st5"
   d="M179,133.3c0,35.2-72.5,96.7-72.5,96.7S34,168.5,34,133.3"
   id="path72" />
<circle
   class="st5"
   cx="142.7"
   cy="133.3"
   r="36.3"
   id="circle74" />
<path
   class="st2"
   d="M131.8,60.1c-7.3-6.8-16.5-10.2-25.7-10.2l0,0c-9.2,0-18.5,3.4-25.7,10.2C66,73.4,63.9,95.4,75.1,111.3  c5.2,6.9,8,15.3,8,23.9c0,2.1,0.8,4,2.2,5.5c0.8,0.8,1.8,1.4,2.8,1.8v21.1c0,5.5,4.3,10.3,9.6,10.3h16.5c5.2,0,9.5-4.9,9.5-10.3  c0-0.1,0-6.8,0-12.9v-8.2c1.1-0.4,2-1,2.8-1.8c1.4-1.5,2.2-3.4,2.2-5.5c0-8.6,2.8-17,8.1-23.9C148.2,95.5,146,73.4,131.8,60.1z"
   id="path76" />
<line
   class="st6"
   x1="106.5"
   y1="42.4"
   x2="106.5"
   y2="26.4"
   id="line78" />
<line
   class="st6"
   x1="138.7"
   y1="55.2"
   x2="150"
   y2="43.9"
   id="line80" />
<line
   class="st6"
   x1="74"
   y1="55.2"
   x2="62.7"
   y2="43.9"
   id="line82" />
<circle
   class="st5"
   cx="70.2"
   cy="133.3"
   r="36.3"
   id="circle84" />
</svg>
